%YAML 1.1
%TAG !u! tag:unity3d.com,2011:
--- !u!162 &1
EditorUserSettings:
  m_ObjectHideFlags: 0
  serializedVersion: 4
  m_ConfigSettings:
    RecentlyUsedSceneGuid-0:
      value: 5a5757560101590a5d0c0e24427b5d44434e4c7a7b7a23677f2b4565b7b5353a
      flags: 0
    RecentlyUsedSceneGuid-1:
      value: 570600000701500e585b5d7011705944474f1c7f7e2920647c784f31b4b0613a
      flags: 0
    RecentlyUsedSceneGuid-2:
      value: 5202520754075c0d5b5a5d7746255e44141619732d2b74327f7c1932b7b16569
      flags: 0
    RecentlyUsedSceneGuid-3:
      value: 57520003540d5b0f0b0d5f7b16255d4412164b787c297f347f7e4864e6b8326b
      flags: 0
    RecentlyUsedSceneGuid-4:
      value: 530104565505590b5d5e5c7240730f404647487a7c7876607d794d63b2b06468
      flags: 0
    RecentlyUsedSceneGuid-5:
      value: 5400075e510d590d0c5e0d2042720c44424e4c2e282b733278711b32b5b0606c
      flags: 0
    RecentlyUsedSceneGuid-6:
      value: 0507015552055e0d5c5e5875467a0e4442151929797c7e637d714a62b5b33160
      flags: 0
    RecentlyUsedSceneGuid-7:
      value: 0150005356075e0a0f08097640260f44134f412e7d7920677e281835e0b3316a
      flags: 0
    RecentlyUsedSceneGuid-8:
      value: 5754510757565f035e0a5a2045755e44134f4a292a707561787e456ab7e1676e
      flags: 0
    vcSharedLogLevel:
      value: 0d5e400f0650
      flags: 0
  m_VCAutomaticAdd: 1
  m_VCDebugCom: 0
  m_VCDebugCmd: 0
  m_VCDebugOut: 0
  m_SemanticMergeMode: 2
  m_DesiredImportWorkerCount: 4
  m_StandbyImportWorkerCount: 2
  m_IdleImportWorkerShutdownDelay: 60000
  m_VCShowFailedCheckout: 1
  m_VCOverwriteFailedCheckoutAssets: 1
  m_VCProjectOverlayIcons: 1
  m_VCHierarchyOverlayIcons: 1
  m_VCOtherOverlayIcons: 1
  m_VCAllowAsyncUpdate: 1
  m_ArtifactGarbageCollection: 1
